[
  {
    "name": "Universidad de Sevilla",
    "headquarters": "Sevilla",
    "autonomous_community": "Andalucía",
    "year_of_foundation": 1505,
    "type": "Pública"
  },
  {
    "name": "Universidad de Granada",
    "headquarters": "Granada",
    "autonomous_community": "Andalucía",
    "year_of_foundation": 1531,
    "type": "Pública"
  },
  {
    "name": "Universidad de Córdoba",
    "headquarters": "Córdoba",
    "autonomous_community": "Andalucía",
    "year_of_foundation": 1972,
    "type": "Pública"
  },
  {
    "name": "Universidad de Málaga",
    "headquarters": "Málaga",
    "autonomous_community": "Andalucía",
    "year_of_foundation": 1972,
    "type": "Pública"
  },
  {
    "name": "Universidad de Cádiz",
    "headquarters": "Cádiz",
    "autonomous_community": "Andalucía",
    "year_of_foundation": 1979,
    "type": "Pública"
  },
  {
    "name": "Universidad de Almería",
    "headquarters": "Almería",
    "autonomous_community": "Andalucía",
    "year_of_foundation": 1993,
    "type": "Pública"
  },
  {
    "name": "Universidad de Huelva",
    "headquarters": "Huelva",
    "autonomous_community": "Andalucía",
    "year_of_foundation": 1993,
    "type": "Pública"
  },
  {
    "name": "Universidad de Jaén",
    "headquarters": "Jaén",
    "autonomous_community": "Andalucía",
    "year_of_foundation": 1993,
    "type": "Pública"
  },
  {
    "name": "Universidad Internacional de Andalucía",
    "headquarters": "Sevilla",
    "autonomous_community": "Andalucía",
    "year_of_foundation": 1994,
    "type": "Pública"
  },
  {
    "name": "Universidad Pablo de Olavide",
    "headquarters": "Sevilla",
    "autonomous_community": "Andalucía",
    "year_of_foundation": 1997,
    "type": "Pública"
  },
  {
    "name": "Universidad Loyola Andalucía",
    "headquarters": "Sevilla",
    "autonomous_community": "Andalucía",
    "year_of_foundation": 2011,
    "type": "Privada"
  },
  {
    "name": "Universidad de Zaragoza",
    "headquarters": "Zaragoza",
    "autonomous_community": "Aragón",
    "year_of_foundation": 1542,
    "type": "Pública"
  },
  {
    "name": "Universidad San Jorge",
    "headquarters": "Villanueva de Gállego",
    "autonomous_community": "Aragón",
    "year_of_foundation": 2005,
    "type": "Privada"
  },
  {
    "name": "Universidad de Oviedo",
    "headquarters": "Oviedo",
    "autonomous_community": "Asturias",
    "year_of_foundation": 1608,
    "type": "Pública"
  },
  {
    "name": "Universidad de las Islas Baleares",
    "headquarters": "Palma de Mallorca",
    "autonomous_community": "Islas Baleares",
    "year_of_foundation": 1978,
    "type": "Pública"
  },
  {
    "name": "Universidad de La Laguna",
    "headquarters": "San Cristóbal de La Laguna",
    "autonomous_community": "Canarias",
    "year_of_foundation": 1927,
    "type": "Pública"
  },
  {
    "name": "Universidad de Las Palmas de Gran Canaria",
    "headquarters": "Las Palmas de Gran Canaria",
    "autonomous_community": "Canarias",
    "year_of_foundation": 1989,
    "type": "Pública"
  },
  {
    "name": "Universidad Europea de Canarias",
    "headquarters": "La Orotava",
    "autonomous_community": "Canarias",
    "year_of_foundation": 2012,
    "type": "Privada"
  },
  {
    "name": "Universidad Fernando Pessoa-Canarias",
    "headquarters": "Santa María de Guía",
    "autonomous_community": "Canarias",
    "year_of_foundation": 2014,
    "type": "Privada"
  },
  {
    "name": "Universidad de Cantabria",
    "headquarters": "Santander",
    "autonomous_community": "Cantabria",
    "year_of_foundation": 1972,
    "type": "Pública"
  },
  {
    "name": "Universidad Europea del Atlántico",
    "headquarters": "Santander",
    "autonomous_community": "Cantabria",
    "year_of_foundation": 2013,
    "type": "Privada"
  },
  {
    "name": "Universidad de Castilla-La Mancha",
    "headquarters": "Ciudad Real",
    "autonomous_community": "Castilla-La Mancha",
    "year_of_foundation": 1985,
    "type": "Pública"
  },
  {
    "name": "Universidad de Salamanca",
    "headquarters": "Salamanca",
    "autonomous_community": "Castilla y León",
    "year_of_foundation": 1218,
    "type": "Pública"
  },
  {
    "name": "Universidad de Valladolid",
    "headquarters": "Valladolid",
    "autonomous_community": "Castilla y León",
    "year_of_foundation": 1241,
    "type": "Pública"
  },
  {
    "name": "Universidad Pontificia de Salamanca",
    "headquarters": "Salamanca",
    "autonomous_community": "Castilla y León",
    "year_of_foundation": 1940,
    "type": "Privada, Católica"
  },
  {
    "name": "Universidad de León",
    "headquarters": "León",
    "autonomous_community": "Castilla y León",
    "year_of_foundation": 1979,
    "type": "Pública"
  },
  {
    "name": "Universidad de Burgos",
    "headquarters": "Burgos",
    "autonomous_community": "Castilla y León",
    "year_of_foundation": 1994,
    "type": "Pública"
  },
  {
    "name": "Universidad Católica Santa Teresa de Jesús de Ávila",
    "headquarters": "Ávila",
    "autonomous_community": "Castilla y León",
    "year_of_foundation": 1996,
    "type": "Privada, Católica"
  },
  {
    "name": "Universidad Europea Miguel de Cervantes",
    "headquarters": "Valladolid",
    "autonomous_community": "Castilla y León",
    "year_of_foundation": 2002,
    "type": "Privada"
  },
  {
    "name": "Universidad IE",
    "headquarters": "Segovia",
    "autonomous_community": "Castilla y León",
    "year_of_foundation": 2008,
    "type": "Privada"
  },
  {
    "name": "Universidad Internacional Isabel I de Castilla",
    "headquarters": "Burgos",
    "autonomous_community": "Castilla y León",
    "year_of_foundation": 2011,
    "type": "Privada, no presencial"
  },
  {
    "name": "Universidad de Barcelona",
    "headquarters": "Barcelona",
    "autonomous_community": "Cataluña",
    "year_of_foundation": 1450,
    "type": "Pública"
  },
  {
    "name": "Universidad Autónoma de Barcelona",
    "headquarters": "Sardañola del Vallés",
    "autonomous_community": "Cataluña",
    "year_of_foundation": 1968,
    "type": "Pública"
  },
  {
    "name": "Universidad Politécnica de Cataluña",
    "headquarters": "Barcelona",
    "autonomous_community": "Cataluña",
    "year_of_foundation": 1971,
    "type": "Pública"
  },
  {
    "name": "Universidad Pompeu Fabra",
    "headquarters": "Barcelona",
    "autonomous_community": "Cataluña",
    "year_of_foundation": 1990,
    "type": "Pública"
  },
  {
    "name": "Universidad Ramon Llull",
    "headquarters": "Barcelona",
    "autonomous_community": "Cataluña",
    "year_of_foundation": 1990,
    "type": "Privada"
  },
  {
    "name": "Universidad de Gerona",
    "headquarters": "Gerona",
    "autonomous_community": "Cataluña",
    "year_of_foundation": 1991,
    "type": "Pública"
  },
  {
    "name": "Universidad de Lérida",
    "headquarters": "Lérida",
    "autonomous_community": "Cataluña",
    "year_of_foundation": 1991,
    "type": "Pública"
  },
  {
    "name": "Universidad Rovira i Virgili",
    "headquarters": "Tarragona",
    "autonomous_community": "Cataluña",
    "year_of_foundation": 1991,
    "type": "Pública"
  },
  {
    "name": "Universidad Abierta de Cataluña",
    "headquarters": "Barcelona",
    "autonomous_community": "Cataluña",
    "year_of_foundation": 1994,
    "type": "Pública, no presencial"
  },
  {
    "name": "Universidad Internacional de Cataluña",
    "headquarters": "Barcelona",
    "autonomous_community": "Cataluña",
    "year_of_foundation": 1997,
    "type": "Privada"
  },
  {
    "name": "Universidad de Vich",
    "headquarters": "Vich",
    "autonomous_community": "Cataluña",
    "year_of_foundation": 1997,
    "type": "Privada"
  },
  {
    "name": "Universidad Abad Oliva CEU",
    "headquarters": "Barcelona",
    "autonomous_community": "Cataluña",
    "year_of_foundation": 2003,
    "type": "Privada,"
  },
  {
    "name": "Universidad de Valencia",
    "headquarters": "Valencia",
    "autonomous_community": "Comunidad Valenciana",
    "year_of_foundation": 1499,
    "type": "Pública"
  },
  {
    "name": "Universidad Politécnica de Valencia",
    "headquarters": "Valencia",
    "autonomous_community": "Comunidad Valenciana",
    "year_of_foundation": 1968,
    "type": "Pública"
  },
  {
    "name": "Universidad de Alicante",
    "headquarters": "San Vicente del Raspeig",
    "autonomous_community": "Comunidad Valenciana",
    "year_of_foundation": 1979,
    "type": "Pública"
  },
  {
    "name": "Universidad Jaime I",
    "headquarters": "Castellón de la Plana",
    "autonomous_community": "Comunidad Valenciana",
    "year_of_foundation": 1991,
    "type": "Pública"
  },
  {
    "name": "Universidad Miguel Hernández de Elche",
    "headquarters": "Elche",
    "autonomous_community": "Comunidad Valenciana",
    "year_of_foundation": 1996,
    "type": "Pública"
  },
  {
    "name": "Universidad CEU Cardenal Herrera",
    "headquarters": "Moncada",
    "autonomous_community": "Comunidad Valenciana",
    "year_of_foundation": 1999,
    "type": "Privada"
  },
  {
    "name": "Universidad Católica de Valencia San Vicente Mártir",
    "headquarters": "Valencia",
    "autonomous_community": "Comunidad Valenciana",
    "year_of_foundation": 2003,
    "type": "Privada, Católica"
  },
  {
    "name": "Universidad Internacional de Valencia",
    "headquarters": "Valencia",
    "autonomous_community": "Comunidad Valenciana",
    "year_of_foundation": 2008,
    "type": "Privada, no presencial"
  },
  {
    "name": "Universidad Europea de Valencia",
    "headquarters": "Valencia",
    "autonomous_community": "Comunidad Valenciana",
    "year_of_foundation": 2012,
    "type": "Privada"
  },
  {
    "name": "Universidad de Extremadura",
    "headquarters": "Badajoz",
    "autonomous_community": "Extremadura",
    "year_of_foundation": 1973,
    "type": "Pública"
  },
  {
    "name": "Universidad de Santiago de Compostela",
    "headquarters": "Santiago de Compostela",
    "autonomous_community": "Galicia",
    "year_of_foundation": 1495,
    "type": "Pública"
  },
  {
    "name": "Universidad de La Coruña",
    "headquarters": "La Coruña",
    "autonomous_community": "Galicia",
    "year_of_foundation": 1989,
    "type": "Pública"
  },
  {
    "name": "Universidad de Vigo",
    "headquarters": "Vigo",
    "autonomous_community": "Galicia",
    "year_of_foundation": 1990,
    "type": "Pública"
  },
  {
    "name": "Universidad de La Rioja",
    "headquarters": "Logroño",
    "autonomous_community": "La Rioja",
    "year_of_foundation": 1992,
    "type": "Pública"
  },
  {
    "name": "Universidad Internacional de La Rioja",
    "headquarters": "Logroño",
    "autonomous_community": "La Rioja",
    "year_of_foundation": 2008,
    "type": "Privada, no presencial"
  },
  {
    "name": "Universidad Complutense de Madrid",
    "headquarters": "Madrid",
    "autonomous_community": "Comunidad de Madrid",
    "year_of_foundation": 1822,
    "type": "Pública"
  },
  {
    "name": "Universidad Pontificia Comillas",
    "headquarters": "Madrid",
    "autonomous_community": "Comunidad de Madrid",
    "year_of_foundation": 1890,
    "type": "Privada, Católica"
  },
  {
    "name": "Universidad Internacional Menéndez Pelayo",
    "headquarters": "Madrid",
    "autonomous_community": "Comunidad de Madrid",
    "year_of_foundation": 1932,
    "type": "Pública"
  },
  {
    "name": "Universidad Autónoma de Madrid",
    "headquarters": "Madrid",
    "autonomous_community": "Comunidad de Madrid",
    "year_of_foundation": 1968,
    "type": "Pública"
  },
  {
    "name": "Universidad Politécnica de Madrid",
    "headquarters": "Madrid",
    "autonomous_community": "Comunidad de Madrid",
    "year_of_foundation": 1971,
    "type": "Pública"
  },
  {
    "name": "Universidad Nacional de Educación a Distancia",
    "headquarters": "Madrid",
    "autonomous_community": "Comunidad de Madrid",
    "year_of_foundation": 1972,
    "type": "Pública, no presencial"
  },
  {
    "name": "Universidad de Alcalá",
    "headquarters": "Alcalá de Henares",
    "autonomous_community": "Comunidad de Madrid",
    "year_of_foundation": 1977,
    "type": "Pública"
  },
  {
    "name": "Universidad Carlos III de Madrid",
    "headquarters": "Getafe",
    "autonomous_community": "Comunidad de Madrid",
    "year_of_foundation": 1989,
    "type": "Pública"
  },
  {
    "name": "Universidad Alfonso X el Sabio",
    "headquarters": "Villanueva de la Cañada",
    "autonomous_community": "Comunidad de Madrid",
    "year_of_foundation": 1993,
    "type": "Privada"
  },
  {
    "name": "Universidad CEU San Pablo",
    "headquarters": "Madrid",
    "autonomous_community": "Comunidad de Madrid",
    "year_of_foundation": 1993,
    "type": "Privada"
  },
  {
    "name": "Universidad Francisco de Vitoria",
    "headquarters": "Pozuelo de Alarcón/Majadahonda",
    "autonomous_community": "Comunidad de Madrid",
    "year_of_foundation": 1993,
    "type": "Privada"
  },
  {
    "name": "Universidad Antonio de Nebrija",
    "headquarters": "Hoyo de Manzanares",
    "autonomous_community": "Comunidad de Madrid",
    "year_of_foundation": 1995,
    "type": "Privada"
  },
  {
    "name": "Universidad Europea de Madrid",
    "headquarters": "Villaviciosa de Odón",
    "autonomous_community": "Comunidad de Madrid",
    "year_of_foundation": 1995,
    "type": "Privada"
  },
  {
    "name": "Universidad Rey Juan Carlos",
    "headquarters": "Móstoles",
    "autonomous_community": "Comunidad de Madrid",
    "year_of_foundation": 1996,
    "type": "Pública"
  },
  {
    "name": "Universidad Camilo José Cela",
    "headquarters": "Villanueva de la Cañada",
    "autonomous_community": "Comunidad de Madrid",
    "year_of_foundation": 1998,
    "type": "Privada"
  },
  {
    "name": "Universidad a Distancia de Madrid",
    "headquarters": "Madrid",
    "autonomous_community": "Comunidad de Madrid",
    "year_of_foundation": 2006,
    "type": "Privada, no presencial"
  },
  {
    "name": "Universidad Eclesiástica San Dámaso",
    "headquarters": "Madrid",
    "autonomous_community": "Comunidad de Madrid",
    "year_of_foundation": 2011,
    "type": "Privada, eclesiástica"
  },
  {
    "name": "Universidad de Murcia",
    "headquarters": "Murcia",
    "autonomous_community": "Región de Murcia",
    "year_of_foundation": 1914,
    "type": "Pública"
  },
  {
    "name": "Universidad Católica San Antonio",
    "headquarters": "Guadalupe - Murcia",
    "autonomous_community": "Región de Murcia",
    "year_of_foundation": 1996,
    "type": "Privada, Católica"
  },
  {
    "name": "Universidad Politécnica de Cartagena",
    "headquarters": "Cartagena",
    "autonomous_community": "Región de Murcia",
    "year_of_foundation": 1998,
    "type": "Pública"
  },
  {
    "name": "Universidad de Navarra",
    "headquarters": "Pamplona",
    "autonomous_community": "Navarra",
    "year_of_foundation": 1952,
    "type": "Privada, Católica"
  },
  {
    "name": "Universidad Pública de Navarra",
    "headquarters": "Pamplona",
    "autonomous_community": "Navarra",
    "year_of_foundation": 1987,
    "type": "Pública"
  },
  {
    "name": "Universidad de Deusto",
    "headquarters": "Bilbao",
    "autonomous_community": "País Vasco",
    "year_of_foundation": 1886,
    "type": "Privada, Católica"
  },
  {
    "name": "Universidad del País Vasco",
    "headquarters": "Lejona",
    "autonomous_community": "País Vasco",
    "year_of_foundation": 1980,
    "type": "Pública"
  },
  {
    "name": "Universidad de Mondragón",
    "headquarters": "Mondragón",
    "autonomous_community": "País Vasco",
    "year_of_foundation": 1997,
    "type": "Privada"
  }
]
