course,code,name,type,credits,period,availability,limit,language
1,29900,Matemáticas I,Formación Básica,"6,0","Semestre 1, Semestre 2",,-,Castellano
1,29901,Física I,Formación Básica,"6,0","Semestre 1, Semestre 2",,-,Castellano
1,29902,Fundamentos de informática,Formación Básica,"6,0","Semestre 1, Semestre 2",,-,Castellano
1,29903,Expresión gráfica y diseño asistido por ordenador,Formación Básica,"6,0","Semestre 1, Semestre 2",,-,Castellano
1,29904,Química,Formación Básica,"6,0","Semestre 1, Semestre 2",,-,Castellano
1,29905,Matemáticas II,Formación Básica,"6,0","Semestre 1, Semestre 2",,-,Castellano
1,29906,Física II,Formación Básica,"6,0","Semestre 1, Semestre 2",,-,Castellano
1,29907,Fundamentos de administración de empresas,Formación Básica,"6,0","Semestre 1, Semestre 2",,-,Castellano
1,29909,Ampliación de química I,Obligatoria,"6,0",Semestre 2,,-,Castellano
1,29910,Matemáticas III,Formación Básica,"6,0","Semestre 1, Semestre 2",,-,Castellano
2,29908,Estadística,Formación Básica,"6,0","Semestre 1, Semestre 2",,-,Castellano
2,29911,Fundamentos de electrotecnia,Obligatoria,"6,0",Semestre 1,,-,Castellano
2,29912,Organización y dirección de empresas,Obligatoria,"6,0",Semestre 1,,-,Castellano
2,29913,Termodinámica técnica y fundamentos de transmisión de calor,Obligatoria,"6,0",Semestre 1,,-,Castellano
2,29914,Ampliación de química II,Obligatoria,"6,0",Semestre 1,,-,Castellano
2,29915,Experimentación en química,Obligatoria,"6,0",Semestre 2,,-,Castellano
2,29916,Mecánica,Obligatoria,"6,0",Semestre 2,,-,Castellano
2,29917,Mecánica de fluidos,Obligatoria,"6,0",Semestre 2,,-,Castellano
2,29918,Ingeniería de materiales,Obligatoria,"6,0",Semestre 2,,-,Castellano
2,29936,Sistemas automáticos,Obligatoria,"6,0",Semestre 2,,-,Castellano
3,29919,Fundamentos de electrónica,Obligatoria,"6,0",Semestre 1,,-,Castellano
3,29920,Resistencia de materiales,Obligatoria,"6,0",Semestre 1,,-,Castellano
3,29921,Transferencia de materia,Obligatoria,"6,0",Semestre 1,,-,Castellano
3,29922,Cinética química aplicada,Obligatoria,"6,0",Semestre 1,,-,Castellano
3,29923,Fluidotecnia,Obligatoria,"6,0",Semestre 1,,-,Castellano
3,29924,Tecnologías de fabricación,Obligatoria,"6,0",Semestre 2,,-,Castellano
3,29925,Operaciones de separación,Obligatoria,"6,0",Semestre 2,,-,Castellano
3,29926,Diseño de reactores,Obligatoria,"6,0",Semestre 2,,-,Castellano
3,29927,Termotecnia,Obligatoria,"6,0",Semestre 2,,-,Castellano
3,29928,Experimentación en ingeniería química I,Obligatoria,"6,0",Semestre 2,,-,Castellano
4,24900,Idioma moderno Inglés B1,Obligatoria,"2,0",,,-,(no definido)
4,29929,Oficina de proyectos,Obligatoria,"6,0",Semestre 1,,-,Castellano
4,29930,Control de procesos químicos,Obligatoria,"6,0",Semestre 1,,-,Castellano
4,29931,Química industrial,Obligatoria,"6,0",Semestre 1,,-,Castellano
4,29932,Experimentación en ingeniería química II,Obligatoria,"6,0",Semestre 1,,-,Castellano
4,29933,Ingeniería del medio ambiente,Obligatoria,"6,0",Semestre 1,,-,Castellano
4,29935,Trabajo fin de Grado,Trabajo fin de Grado,"12,0",Semestre 2,,-,—
4,29937,Gestión de residuos e impacto ambiental,Optativa,"6,0",Semestre 2,,-,Castellano
4,29938,Tecnologías de tratamiento de aguas y gases contaminados,Optativa,"6,0",Semestre 2,,-,Castellano
4,29939,Análisis instrumental para el control de la calidad en la industria,Optativa,"6,0",Semestre 2,,-,Castellano
4,29940,Catálisis y procesos catalíticos de interés industrial,Optativa,"6,0",Semestre 2,,-,Castellano
4,29941,Reacciones de polimerización,Optativa,"6,0",Semestre 2,,-,Castellano
4,29942,Diseño de instalaciones de fluidos,Optativa,"6,0",Semestre 2,,-,Castellano
4,29977,Problemática ambiental y herramientas de protección del medio ambiente,Optativa,"4,0",Semestre 2,,50,Castellano
4,29978,Retos y consecuencias del desarrollo técnico,Optativa,"4,0",Semestre 2,,50,Castellano
4,29980,Gestionar en la industria 4.0,Optativa,"4,0",Semestre 1,,50,Castellano
4,29981,Responsabilidad legal y ética en el ejercicio profesional,Optativa,"4,0",Semestre 1,,50,Castellano
4,29984,Photography and contemporary visual culture,Optativa,"4,0",Semestre 2,,50,English
4,29985,Técnicas creativas para la presentación de proyectos,Optativa,"4,0",,No vigente,-,(no definido)
4,29986,Historia de la Tecnología y de la Arquitectura,Optativa,"4,0",Semestre 1,,50,Castellano
4,29987,Comunicación:Herramienta de desarrollo profesional en Ingeniería,Optativa,"4,0",,No vigente,-,(no definido)
4,29988,Documentación gráfica para proyectos industriales,Optativa,"4,0",,No vigente,-,(no definido)
4,29989,"Energy, Economy and Sustainable Development",Optativa,"4,0",,No vigente,-,(no definido)
4,29991,Desarrollo sostenible y cooperación internacional,Optativa,"4,0",,No vigente,-,(no definido)
4,29994,Seguridad y prevención de riesgos en procesos industriales,Optativa,"4,0",Semestre 2,,50,Castellano
4,29996,Emprendimiento y liderazgo,Optativa,"4,0",Semestre 1,,50,Castellano
4,29998,Inglés técnico,Optativa,"4,0","Semestre 1, Semestre 2",,50,Castellano
4,29999,Alemán técnico,Optativa,"4,0",Semestre 1,,50,Castellano
4,51451,Optatividad en movilidad,Optativa,"1,0",Semestre 1,,-,Castellano
4,51452,Optatividad en movilidad,Optativa,"2,0",Semestre 1,,-,Castellano
4,51453,Optatividad en movilidad,Optativa,"3,0",Semestre 1,,-,Castellano
4,51454,Optatividad en movilidad,Optativa,"4,0",Semestre 1,,-,Castellano
4,51455,Optatividad en movilidad,Optativa,"5,0",Semestre 1,,-,Castellano
4,51456,Optatividad en movilidad,Optativa,"6,0",Semestre 1,,-,Castellano
