course,code,name,type,credits,period,availability,limit,language
1,30300,Matemáticas I,Formación Básica,"6,0",Semestre 1,,-,Castellano
1,30301,Fundamentos de física,Formación Básica,"6,0",Semestre 1,,-,Castellano
1,30302,Circuitos y sistemas,Formación Básica,"6,0",Semestre 1,,-,Castellano
1,30303,Fundamentos de informática,Formación Básica,"6,0",Semestre 1,,-,Castellano
1,30304,Matemáticas II,Formación Básica,"6,0",Semestre 1,,-,Castellano
1,30305,Señales y sistemas,Obligatoria,"6,0",Semestre 2,,-,Castellano
1,30306,Matemáticas III,Formación Básica,"6,0",Semestre 2,,-,Castellano
1,30307,Fundamentos de electrónica,Formación Básica,"6,0",Semestre 2,,-,Castellano
1,30308,Probabilidad y procesos,Formación Básica,"6,0",Semestre 2,,-,Castellano
1,30309,Fundamentos de administración de empresas,Formación Básica,"6,0",Semestre 2,,-,Castellano
2,30310,Electromagnetismo y ondas,Formación Básica,"6,0",Semestre 1,,-,Castellano
2,30311,Electrónica analógica,Obligatoria,"6,0",Semestre 1,,-,Castellano
2,30312,Procesado digital de señales,Obligatoria,"6,0",Semestre 1,,-,Castellano
2,30313,Fundamentos de redes,Obligatoria,"6,0",Semestre 1,,-,Castellano
2,30314,Teoría de comunicación,Obligatoria,"6,0",Semestre 1,,-,Castellano
2,30315,Electrónica digital,Obligatoria,"6,0",Semestre 2,,-,Castellano
2,30316,Tecnologías e interconexión de redes,Obligatoria,"9,0",Semestre 2,,-,Castellano
2,30317,Propagación y medios de transmisión,Obligatoria,"9,0",Semestre 2,,-,Castellano
2,30318,Comunicaciones digitales,Obligatoria,"6,0",Semestre 2,,-,Castellano
3,30319,Sistemas electrónicos con microprocesadores,Obligatoria,"6,0",Semestre 1,,-,Castellano
3,30320,Planificación y dimensionado de redes,Obligatoria,"6,0",Semestre 1,,-,Castellano
3,30321,Arquitectura de sistemas,Obligatoria,"6,0",Semestre 1,,-,Castellano
3,30322,Programación de redes y servicios,Obligatoria,"6,0",Semestre 2,,-,Castellano
3,30325,Electrónica de radiofrecuencia,Obligatoria,"6,0",Semestre 1,,-,Castellano
3,30327,Electrónica de potencia,Obligatoria,"6,0",Semestre 1,,-,Castellano
3,30328,Electrónica de comunicaciones,Obligatoria,"6,0",Semestre 2,,-,Castellano
3,30330,Instrumentación electrónica,Obligatoria,"6,0",Semestre 2,,-,Castellano
3,30338,Fundamentos de alta frecuencia,Obligatoria,"6,0",Semestre 2,,-,Castellano
3,30341,Señales de audio y vídeo,Obligatoria,"6,0",,No ofertada,-,(no definido)
3,30342,Ingeniería acústica,Obligatoria,"6,0",,No ofertada,-,(no definido)
3,30344,Acústica ambiental y arquitectónica,Obligatoria,"6,0",,No ofertada,-,(no definido)
3,30345,Sistemas y equipos electrónicos de audio y vídeo,Obligatoria,"6,0",,No ofertada,-,(no definido)
3,30346,Codificación y transporte de servicios audiovisuales,Obligatoria,"6,0",,No ofertada,-,(no definido)
3,30349,Redes de acceso,Obligatoria,"6,0",Semestre 1,,-,Castellano
3,30350,Redes de transporte,Obligatoria,"6,0",Semestre 1,,-,Castellano
4,24900,Idioma moderno Inglés B1,Obligatoria,"2,0",,,-,(no definido)
4,29977,Problemática ambiental y herramientas de protección del medio ambiente,Optativa,"4,0",Semestre 2,,50,Castellano
4,29978,Retos y consecuencias del desarrollo técnico,Optativa,"4,0",Semestre 2,,50,Castellano
4,29980,Gestionar en la industria 4.0,Optativa,"4,0",Semestre 1,,50,Castellano
4,29981,Responsabilidad legal y ética en el ejercicio profesional,Optativa,"4,0",Semestre 1,,50,Castellano
4,29984,Photography and contemporary visual culture,Optativa,"4,0",Semestre 2,,50,English
4,29985,Técnicas creativas para la presentación de proyectos,Optativa,"4,0",,No vigente,-,(no definido)
4,29986,Historia de la Tecnología y de la Arquitectura,Optativa,"4,0",Semestre 1,,50,Castellano
4,29987,Comunicación:Herramienta de desarrollo profesional en Ingeniería,Optativa,"4,0",,No vigente,-,(no definido)
4,29988,Documentación gráfica para proyectos industriales,Optativa,"4,0",,No vigente,-,(no definido)
4,29989,"Energy, Economy and Sustainable Development",Optativa,"4,0",,No vigente,-,(no definido)
4,29991,Desarrollo sostenible y cooperación internacional,Optativa,"4,0",,No vigente,-,(no definido)
4,29994,Seguridad y prevención de riesgos en procesos industriales,Optativa,"4,0",Semestre 2,,50,Castellano
4,29996,Emprendimiento y liderazgo,Optativa,"4,0",Semestre 1,,50,Castellano
4,29998,Inglés técnico,Optativa,"4,0","Semestre 1, Semestre 2",,50,Castellano
4,29999,Alemán técnico,Optativa,"4,0",Semestre 1,,50,Castellano
4,30323,Gestión de proyectos de telecomunicación,Obligatoria,"6,0",Semestre 1,,-,Castellano
4,30331,Sistemas electrónicos de audio y vídeo," ","6,0",Semestre 1,,-,Castellano
4,30332,Sistemas electrónicos en telecomunicaciones,Obligatoria,"6,0",Semestre 1,,-,Castellano
4,30339,Sistemas de radiocomunicación,Obligatoria,"6,0",Semestre 1,,-,Castellano
4,30340,Equipos y sistemas de transmisión," ","6,0",Semestre 1,,-,Castellano
4,30347,Proyectos de instalaciones de audio y vídeo,Obligatoria,"6,0",,No ofertada,-,(no definido)
4,30348,Ingeniería multimedia e interactividad," ","6,0",Semestre 2,,-,Castellano
4,30355,Diseño y evaluación de redes,Obligatoria,"6,0",Semestre 1,,-,Castellano
4,30357,Laboratorio de señal y comunicaciones,Optativa,"6,0",Semestre 2,,-,Castellano
4,30358,Laboratorio de comunicaciones ópticas,Optativa,"6,0",Semestre 1,,-,Castellano
4,30359,Fuentes de alimentación electrónica,Optativa,"6,0",Semestre 2,,32,Castellano
4,30360,Sistemas de información,Optativa,"6,0",Semestre 1,,-,Castellano
4,30362,Sistemas de información II,Optativa,"6,0",Semestre 2,,-,Castellano
4,30363,Trabajo fin de Grado (Sistemas Electrónicos),Trabajo fin de Grado,"12,0",Semestre 2,,-,—
4,30364,Trabajo fin de Grado (Sistemas de Telecomunicación),Trabajo fin de Grado,"12,0",Semestre 2,,-,—
4,30365,Trabajo fin de Grado (Telemática),Trabajo fin de Grado,"12,0",Semestre 2,,-,—
4,30366,Análisis y diseño de software,Obligatoria,"6,0",Semestre 1,,-,Castellano
—,30326,Laboratorio de diseño electrónico," ","6,0",Semestre 2,,-,Castellano
—,30329,Sistemas electrónicos digitales," ","6,0",Semestre 2,,-,Castellano
—,30333,Aplicaciones de procesado digital de señal," ","6,0",Semestre 1,,-,Castellano
—,30334,Tecnologías de radiofrecuencia," ","6,0",Semestre 1,,-,Castellano
—,30335,Dispositivos y sistemas de transmisión óptica," ","6,0",Semestre 2,,-,Castellano
—,30336,Comunicaciones audiovisuales," ","6,0",Semestre 2,,-,Castellano
—,30337,Servicios y sistemas de telecomunicación," ","6,0",Semestre 2,,-,Castellano
—,30343,Producción de audio y vídeo," ","6,0",Semestre 2,,-,Castellano
—,30351,Gestión de red," ","6,0",Semestre 2,,-,Castellano
—,30353,Seguridad en redes y servicios," ","6,0",Semestre 2,,-,Castellano
—,30354,Redes móviles," ","6,0",Semestre 2,,-,Castellano
—,30356,Comercio electrónico,Obligatoria,"6,0",Semestre 2,,-,Castellano
